…
    sentiments = get_sentiments("bing")

    character_sentiment_season <- transcript_words %>%
      inner_join(sentiments, by = "word") %>% 
      count(season, character, sentiment) %>%
      spread(sentiment, n, fill = 0) %>%
      filter(character %in% main_characters &
               negative+positive > 50) %>%
      mutate(sentimentc = positive - negative)

    character_sentiment_season

    ## # A tibble: 81 x 5
    ##    season character negative positive sentimentc
    ##     <int> <chr>        <dbl>    <dbl>      <dbl>
    ##  1      1 Dwight          55       41        -14
    ##  2      1 Jim             32       53         21
    ##  3      1 Michael        180      175         -5
    ##  4      2 Dwight         174      131        -43
    ##  5      2 Jan             36       38          2
    ##  6      2 Jim            101      186         85
    ##  7      2 Kelly           27       28          1
    ##  8      2 Michael        563      576         13
    ##  9      2 Pam             94       87         -7
    ## 10      3 Andy            80       88          8
    ## # ... with 71 more rows
…
